…
The game play statistics that contribute most to the PC score are defensive rebounds, 2-pointers, and turnovers. Let's check these statistics for GSW, NOP, DAL, and SAC.

``` r
pca.df %>% group_by(team) %>% arrange(def_rebounds)
```

    ## # A tibble: 30 x 11
    ## # Groups:   team [30]
    ##     team points3 points2 free_throws off_rebounds def_rebounds assists
    ##    <chr>   <int>   <int>       <int>        <int>        <int>   <int>
    ##  1   SAC     558    1838         998          524         1878    1394
    ##  2   DAL     754    1803        1042          534         2109    1291
    ##  3   NOP     513    1952        1120          580         2244    1523
    ##  4   PHI     690    1917        1212          673         2282    1788
    ##  5   WAS     671    2417        1316          748         2393    1861
    ##  6   CHI     565    2162        1330          865         2416    1746
    ##  7   HOU    1141    1769        1508          766         2429    1906
    ##  8   ORL     614    2168        1230          699         2435    1744
    ##  9   IND     641    2331        1333          679         2436    1713
    ## 10   POR     852    2156        1386          710         2437    1519
    ## # ... with 20 more rows, and 4 more variables: steals <int>, blocks <int>,
    ## #   turnovers <int>, fouls <int>

``` r
pca.df %>% group_by(team) %>% arrange(desc(def_rebounds))
```

    ## # A tibble: 30 x 11
    ## # Groups:   team [30]
    ##     team points3 points2 free_throws off_rebounds def_rebounds assists
    ##    <chr>   <int>   <int>       <int>        <int>        <int>   <int>
    ##  1   GSW     982    2540        1447          759         2854    2475
    ##  2   DET     631    2638        1140          908         2838    1731
    ##  3   LAC     841    2401        1586          740         2790    1848
    ##  4   UTA     791    2242        1401          771         2774    1651
    ##  5   SAS     743    2459        1431          821         2768    1926
    ##  6   BOS     985    2183        1536          744         2698    2069
    ##  7   MIA     799    2349        1217          857         2649    1728
    ##  8   DEN     868    2347        1471          867         2646    2009
    ##  9   CLE    1012    2107        1355          727         2639    1760
    ## 10   CHO     808    2102        1499          634         2636    1805
    ## # ... with 20 more rows, and 4 more variables: steals <int>, blocks <int>,
    ## #   turnovers <int>, fouls <int>

The data above tells us that SAC, DAL, and NOP are the 3 teams with the least defensive rebounds and GSW had the most defensive rebounds. Let's do the same search for 2-pointers and turnovers.

``` r
pca.df %>% group_by(team) %>% arrange(points2)
```

    ## # A tibble: 30 x 11
    ## # Groups:   team [30]
    ##     team points3 points2 free_throws off_rebounds def_rebounds assists
    ##    <chr>   <int>   <int>       <int>        <int>        <int>   <int>
    ##  1   HOU    1141    1769        1508          766         2429    1906
    ##  2   DAL     754    1803        1042          534         2109    1291
    ##  3   SAC     558    1838         998          524         1878    1394
    ##  4   PHI     690    1917        1212          673         2282    1788
    ##  5   BRK     738    1950        1381          608         2546    1593
    ##  6   NOP     513    1952        1120          580         2244    1523
    ##  7   CHO     808    2102        1499          634         2636    1805
    ##  8   CLE    1012    2107        1355          727         2639    1760
    ##  9   MEM     750    2140        1465          866         2534    1669
    ## 10   POR     852    2156        1386          710         2437    1519
    ## # ... with 20 more rows, and 4 more variables: steals <int>, blocks <int>,
    ## #   turnovers <int>, fouls <int>

``` r
pca.df %>% group_by(team) %>% arrange(desc(points2))
```

    ## # A tibble: 30 x 11
    ## # Groups:   team [30]
    ##     team points3 points2 free_throws off_rebounds def_rebounds assists
    ##    <chr>   <int>   <int>       <int>        <int>        <int>   <int>
    ##  1   DET     631    2638        1140          908         2838    1731
    ##  2   MIN     601    2623        1585          938         2530    1934
    ##  3   PHO     564    2551        1605          882         2456    1530
    ##  4   GSW     982    2540        1447          759         2854    2475
    ##  5   SAS     743    2459        1431          821         2768    1926
    ##  6   NYK     636    2445        1262          961         2591    1499
    ##  7   MIL     718    2424        1388          700         2541    1953
    ##  8   WAS     671    2417        1316          748         2393    1861
    ##  9   LAC     841    2401        1586          740         2790    1848
    ## 10   OKC     611    2380        1511          936         2628    1610
    ## # ... with 20 more rows, and 4 more variables: steals <int>, blocks <int>,
    ## #   turnovers <int>, fouls <int>

The data above tells us that SAC, DAL, and NOP are among the teams that scored the fewest 2-pointers and GSW is in the top 5.

``` r
pca.df %>% group_by(team) %>% arrange(turnovers)
```

    ## # A tibble: 30 x 11
    ## # Groups:   team [30]
    ##     team points3 points2 free_throws off_rebounds def_rebounds assists
    ##    <chr>   <int>   <int>       <int>        <int>        <int>   <int>
    ##  1   DAL     754    1803        1042          534         2109    1291
    ##  2   NOP     513    1952        1120          580         2244    1523
    ##  3   CHO     808    2102        1499          634         2636    1805
    ##  4   SAC     558    1838         998          524         1878    1394
    ##  5   DET     631    2638        1140          908         2838    1731
    ##  6   TOR     626    2359        1570          848         2533    1469
    ##  7   CHI     565    2162        1330          865         2416    1746
    ##  8   MEM     750    2140        1465          866         2534    1669
    ##  9   NYK     636    2445        1262          961         2591    1499
    ## 10   ORL     614    2168        1230          699         2435    1744
    ## # ... with 20 more rows, and 4 more variables: steals <int>, blocks <int>,
    ## #   turnovers <int>, fouls <int>

``` r
pca.df %>% group_by(team) %>% arrange(desc(turnovers))
```

    ## # A tibble: 30 x 11
    ## # Groups:   team [30]
    ##     team points3 points2 free_throws off_rebounds def_rebounds assists
    ##    <chr>   <int>   <int>       <int>        <int>        <int>   <int>
    ##  1   PHI     690    1917        1212          673         2282    1788
    ##  2   GSW     982    2540        1447          759         2854    2475
    ##  3   PHO     564    2551        1605          882         2456    1530
    ##  4   BRK     738    1950        1381          608         2546    1593
    ##  5   ATL     626    2254        1373          807         2537    1784
    ##  6   OKC     611    2380        1511          936         2628    1610
    ##  7   DEN     868    2347        1471          867         2646    2009
    ##  8   MIN     601    2623        1585          938         2530    1934
    ##  9   MIL     718    2424        1388          700         2541    1953
    ## 10   UTA     791    2242        1401          771         2774    1651
    ## # ... with 20 more rows, and 4 more variables: steals <int>, blocks <int>,
    ## #   turnovers <int>, fouls <int>
…
